Get daily AQS concentrations — get_daily_aqs • appc
…
Note: Historical measurements are subject to change and the EPA AQS website only stores
the latest versions.  Since this function always downloads the latest data from EPA AQS,
that means that it will could different results depending on the date it was run.

Get all the files on the page and the date they were last updated:
readr::read_csv("https://aqs.epa.gov/aqsweb/airdata/file_list.csv")

    Examples

get_daily_aqs("pm25", "2023")
#> # A tibble: 33,283 × 4
#>    s2               date       pollutant  conc
#>    <s2cell>         <date>     <chr>     <dbl>
#>  1 8c1d2a72306b8c27 2023-01-03 pm25        3.4
#>  2 8c1d2a72306b8c27 2023-01-06 pm25        4.7
#>  3 8c1d2a72306b8c27 2023-01-09 pm25        5.3
#>  4 8c1d2a72306b8c27 2023-01-12 pm25        7.9
#>  5 8c1d2a72306b8c27 2023-01-15 pm25        2.7
#>  6 8c1d2a72306b8c27 2023-01-18 pm25        3.8
#>  7 8c1d2a72306b8c27 2023-01-21 pm25        2.4
#>  8 8c1d2a72306b8c27 2023-01-24 pm25        3.8
#>  9 8c1d2a72306b8c27 2023-01-27 pm25        5.8
#> 10 8c1d2a72306b8c27 2023-01-30 pm25        4.8
#> # ℹ 33,273 more rows
…
