Get states geographic boundaries — s2_states • appc
…
    Get states geographic boundaries

    Usage

s2_states(year = as.character(2010:2023))

    Arguments

    year
character data year passed to tigris to get tract boundaries

    Examples

s2_states(year = "2020")
#> # A tibble: 56 × 2
#>    GEOID s2_geography                                                           
#>    <chr> <s2_geography>                                                         
#>  1 54    POLYGON ((-81.747773 39.094758, -81.749332 39.092898, -81.749853 39.09…
#>  2 12    MULTIPOLYGON (((-86.39285 30.226, -86.39058 30.22575, -86.38852 30.225…
#>  3 17    POLYGON ((-91.18698 40.637297, -91.192558 40.636508, -91.195505 40.636…
#>  4 27    POLYGON ((-96.784489 46.630486, -96.78468 46.630435, -96.784723 46.630…
#>  5 24    POLYGON ((-77.458838 39.220219, -77.458887 39.220155, -77.458898 39.22…
#>  6 44    MULTIPOLYGON (((-71.789704 41.72508, -71.789703 41.724563, -71.789675 …
#>  7 16    POLYGON ((-116.899726 44.840584, -116.89975 44.840546, -116.899772 44.…
#>  8 33    POLYGON ((-72.330509 43.600092, -72.331425 43.599962, -72.331776 43.59…
#>  9 37    POLYGON ((-82.416911 36.072577, -82.416999 36.072446, -82.418141 36.07…
#> 10 50    POLYGON ((-73.314547 44.26149, -73.316427 44.257737, -73.319603 44.249…
#> # ℹ 46 more rows
…
