Get census tract geographic boundaries — s2_tracts • appc
…
    state
character string of state number or abbreviation

year
numeric data year passed to tigris to get tract boundaries

    Value

a tibble of tracts with a s2_geography column

    Examples

s2_tracts("OH", 2022)
#> # A tibble: 3,168 × 13
#>    STATEFP COUNTYFP TRACTCE GEOID    NAME  NAMELSAD MTFCC FUNCSTAT  ALAND AWATER
#>    <chr>   <chr>    <chr>   <chr>    <chr> <chr>    <chr> <chr>     <dbl>  <dbl>
#>  1 39      025      041105  3902504… 411.… Census … G5020 S        7.75e6 1.44e3
#>  2 39      025      041001  3902504… 410.… Census … G5020 S        4.22e7 4.38e6
#>  3 39      025      042002  3902504… 420.… Census … G5020 S        9.97e7 1.40e6
#>  4 39      025      042001  3902504… 420.… Census … G5020 S        9.46e7 2.45e6
#>  5 39      025      041104  3902504… 411.… Census … G5020 S        3.88e6 3.82e4
#>  6 39      025      040704  3902504… 407.… Census … G5020 S        4.11e6 0     
#>  7 39      025      040206  3902504… 402.… Census … G5020 S        2.36e7 3.07e4
#>  8 39      025      040703  3902504… 407.… Census … G5020 S        3.96e6 1.83e3
#>  9 39      025      041506  3902504… 415.… Census … G5020 S        3.27e7 6.22e5
#> 10 39      025      040205  3902504… 402.… Census … G5020 S        3.08e6 0     
#> # ℹ 3,158 more rows
#> # ℹ 3 more variables: INTPTLAT <chr>, INTPTLON <chr>,
#> #   s2_geography <s2_geography>
…
